<?xml version="1.0" encoding="utf-8"?>
<!-- Generator: Adobe Illustrator 17.0.0, SVG Export Plug-In . SVG Version: 6.00 Build 0)  -->
<!DOCTYPE svg PUBLIC "-//W3C//DTD SVG 1.1//EN" "http://www.w3.org/Graphics/SVG/1.1/DTD/svg11.dtd">
<svg version="1.1" id="Layer_1" xmlns="http://www.w3.org/2000/svg" xmlns:xlink="http://www.w3.org/1999/xlink" x="0px" y="0px"
	 width="16px" height="16px" viewBox="0 0 16 16" enable-background="new 0 0 16 16" xml:space="preserve">
<g>
	<path fill="#797979" d="M8.853,12.462c0,0-0.401-2.152-0.153-3.477c0.247-1.325,0.639-1.604,0.6-1.806
		C9.261,6.976,9.063,7.071,9,7.258c-0.063,0.187-0.322,0.59-0.56,0.525C8.201,7.718,8.137,6.457,7.963,6.332
		C7.789,6.205,7.849,6.788,7.917,7.293c0.068,0.505-0.266,0.224-0.474-0.382c-0.208-0.606-0.33-0.428-0.353-0.343
		C7.068,6.655,7.548,7.736,7.512,7.787C7.477,7.839,6.875,6.943,6.817,6.968C6.758,6.994,6.659,7.065,6.802,7.347
		C6.946,7.63,7.397,8.104,7.369,8.183C7.34,8.263,6.967,7.831,6.831,7.821C6.695,7.81,6.75,8.058,6.994,8.283
		c0.244,0.225,0.841,0.471,0.86,1.323c0.019,0.852-0.153,2.852-0.153,2.852S8.126,13.206,8.853,12.462z"/>
	<path fill="#797979" d="M8.593,6.753c0,0-1.974-2.904,1.378-6.035c0,0,3.069,3.613-0.858,6.068c0,0,0.093-2.33,0.534-3.279
		C9.646,3.507,8.466,5.572,8.593,6.753z"/>
	<path fill="#797979" d="M9.927,7.033c0,0,1.213-2.554,4.752-1.501c0,0-1.259,3.603-4.564,1.875c0,0,1.656-0.884,2.495-0.965
		C12.61,6.443,10.694,6.464,9.927,7.033z"/>
	<path fill="#797979" d="M6.238,7.084c0,0-2.333,1.64-4.917-1.042c0,0,2.895-2.537,4.937,0.62c0,0-1.893-0.046-2.669-0.392
		C3.589,6.27,5.281,7.202,6.238,7.084z"/>
	<path fill="#797979" d="M6.824,6.313c0,0-3.022-1.03-2.297-5.136c0,0,4.204,0.947,2.692,4.876c0,0-1.205-1.743-1.404-2.673
		C5.815,3.38,6.086,5.526,6.824,6.313z"/>
	<path fill="#797979" d="M10.013,8.201c0,0,1.807-0.596,2.938,1.618c0,0-2.34,1.06-3.033-1.352c0,0,1.2,0.396,1.629,0.767
		C11.547,9.234,10.647,8.31,10.013,8.201z"/>
	<path fill="#797979" d="M6.324,8.545c0,0-0.705,1.871-3.26,1.337c0,0,0.676-2.612,3.105-1.589c0,0-1.115,0.72-1.701,0.826
		C4.468,9.119,5.816,8.992,6.324,8.545z"/>
</g>
<g id="Page-1">
	<path id="dropbox" fill="#797979" d="M9.676,12.68l0.925-0.709L9.26,11.11l-0.94,0.77l1.355,0.8L8.32,13.526l0.94,0.79l1.377-0.882
		L9.676,12.68L9.676,12.68z M6.052,13.431l0.916-0.725l1.352,0.82L7.388,14.29L6.052,13.431L6.052,13.431z M6.052,11.968
		l1.329-0.859l0.939,0.771l-1.352,0.826L6.052,11.968L6.052,11.968z M6.981,14.2v0.292l1.343,0.79l1.35-0.794V14.2l-0.4,0.257
		l-0.947-0.77l-0.944,0.77L6.981,14.2L6.981,14.2z"/>
</g>
</svg>
